﻿<?xml version="1.0" encoding="utf-8" standalone="no"?>

<svg xmlns="http://www.w3.org/2000/svg" xmlns:svg="http://www.w3.org/2000/svg"
   viewBox="0 -20 130 40" width="130" height="40" version="1.1" style="border : 1px none silver" >

<style type="text/css"><![CDATA[
line { stroke: white; stroke-width: 0.5; }
text { fill : #FFFFFF ; text-anchor : left ; dominant-baseline : middle ; font-size : 18px }
]]></style>

<text x="10" y="0">Espressif Microctrollers</text>
<line x1="3" x2="3" y1="-12" y2="12" />

</svg>
